Exploratory analysis: code quality
…
Number of unique lines in dupicated chunks

Number of unique lines in duplicated chunks of 10 lines, length at least 50

num_unique_dup_lines_10_50

## # A tibble: 93 x 2
##                   repo_name num_unique_dup_lines
##                       <chr>                <int>
##  1 brinkmanlab/GenomeD3Plot                 6023
##  2         beiko-lab/gengis                 2075
##  3       wanderine/BROCCOLI                 1380
##  4            stuchalk/OSDB                  911
##  5   ruchiherself/MulRFRepo                  727
##  6              RUBi-ZA/JMS                  632
##  7     asad/ReactionDecoder                  616
##  8         charite/jannovar                  353
##  9          bioh4x/NeatFreq                  323
## 10       b-brankovics/grabb                  289
## # ... with 83 more rows

Number of unique lines in duplicated chunks of 5 lines, length at least 80

num_unique_dup_lines_5_80

## # A tibble: 86 x 2
##               repo_name num_unique_dup_lines
##                   <chr>                <int>
##  1        stuchalk/OSDB                  665
##  2   wanderine/BROCCOLI                  506
##  3          RUBi-ZA/JMS                  434
##  4      carushi/ParasoR                  228
##  5    sing-group/Markyt                  201
##  6      glennhickey/hal                  159
##  7 thomasvangurp/epiGBS                  153
##  8   lpantano/seqbuster                  151
##  9              atks/vt                  114
## 10 asad/ReactionDecoder                  104
## # ... with 76 more rows
