Exploratory analysis: code quality
…
Number of unique lines in dupicated chunks

Number of unique lines in duplicated chunks of 10 lines, length at least 50

num_unique_dup_lines_10_50

## # A tibble: 370 x 2
##    repo_name                 num_unique_dup_lines
##    <chr>                                    <int>
##  1 BilkentCompGen/GateKeeper                66921
##  2 ruchiherself/MulRFRepo                   20284
##  3 CGATOxford/cgat                          15466
##  4 CGATOxford/UMI-tools                     11946
##  5 griffithlab/pVAC-Seq                     10021
##  6 ABI-Software/ICMA                         9408
##  7 brinkmanlab/GenomeD3Plot                  6000
##  8 SBRG/GEMPro                               4446
##  9 charite/Q                                 4321
## 10 greenelab/TDMresults                      2121
## # ... with 360 more rows

Number of unique lines in duplicated chunks of 5 lines, length at least 80

num_unique_dup_lines_5_80

## # A tibble: 374 x 2
##    repo_name                 num_unique_dup_lines
##    <chr>                                    <int>
##  1 ruchiherself/MulRFRepo                   11126
##  2 CGATOxford/UMI-tools                      9576
##  3 griffithlab/pVAC-Seq                      3108
##  4 charite/Q                                 2085
##  5 NCIP/alview                               1816
##  6 BilkentCompGen/GateKeeper                 1605
##  7 caporaso-lab/mockrobiota                   925
##  8 jpsglouzon/supernmotifs                    872
##  9 cory-ko/KBWS                               819
## 10 PapenfussLab/PathOS                        768
## # ... with 364 more rows
